[
	"aiohttp search",
	"aiohttp server",
	"async downloader",
	"async parser",
	"async pdf parse",
	"async pdf report",
	"async scraper",
	"async search",
	"async search-me server",
	"async search-me",
	"async server",
	"async social search",
	"async",
	"downloader",
	"facebook",
	"google",
	"instagram",
	"parser",
	"pdf parse",
	"pdf report",
	"rambler",
	"scraper",
	"search",
	"search-me server",
	"search-me",
	"searx",
	"snapchat",
	"social downloader",
	"social search",
	"socials",
	"telegram",
	"text summary",
	"tumblr",
	"twitter",
	"vk",
	"web downloader",
	"web scraper",
	"web search",
	"web social search",
	"youtube"
]